colle 2 resazurina – Analise-Resazurina.github.io
…
rodando a função

resultados_finais_2 <- calcular_reducao_resazurina(
  dados = abs_completo_2,
  coluna_absorbancia = abs,
  coluna_comprimento_onda = comprimento_onda,
  coluna_tratamento = tratamento,
  string_controle_negativo = "b_meio",
  strata_col = c("leitura", "meio", "concentracao") 
)

# Verifique o resultado final
print(resultados_finais_2)

# A tibble: 2,619 × 5
   tratamento  leitura meio  concentracao percentagem_reducao
   <chr>         <dbl> <chr>        <dbl>               <dbl>
 1 fungo             1 CM           10000               18.7 
 2 fungicida         1 CM           10000               18.4 
 3 b_fungicida       1 CM           10000               18.4 
 4 fungo             1 CM           50000               19.0 
 5 fungicida         1 CM           50000               18.6 
 6 b_fungicida       1 CM           50000               19.1 
 7 fungo             1 CM          100000               19.5 
 8 fungicida         1 CM          100000               23.1 
 9 b_fungicida       1 CM          100000               18.3 
10 fungo             1 CZK          10000                1.99
# ℹ 2,609 more rows
…
